.
COMPUESTO POR:
 
1 CPU Y SOFTWARE
.  MARCA: HP
.  MOD.: ELITE DESK 800G1 WS
.  SERIAL: CZC5531DDP

1 MONITOR LED 21.5"
.  MARCA: HP
.  MOD: PRO DISPLAY P222
.  SERIAL: CNK6010P54

TECLADO, MOUSE Y ACCESORIOS