.
COMPUESTO POR:
 
1 CPU Y SOFTWARE
.  MARCA: LENOVO M73
.  MOD.: 004CAS
.  VERSION: 10AX
.  SERIAL: MJ021Q2J

1 MONITOR LED 22"
.  MARCA: SAMSUNG
.  MOD: SD300
.  SERIAL: 029RH9XG5008552

1 IMPRESORA MULTIFUNCION INKJET
.  MARCA: HEWLETT PACKARD
.  MOD.: 7612
.  SERIAL: CN4BK3M1W0

TECLADO, MOUSE Y ACCESORIOS