.
COMPUESTO POR:
 
1 CPU Y SOFTWARE
.  MARCA: LENOVO M73
.  MOD.: 004CAS
.  VERSION: 10AX
.  SERIAL: MJ021Q9E

1 MONITOR LED 22"
.  MARCA: SAMSUNG
.  MOD: SD300
.  SERIAL: 029RH9XG500861W
1 IMPRESORA MULTIFUNCION INKJET
.  MARCA: HEWLETT PACKARD
.  MOD.: 7612
.  SERIAL: CN4BKM1YV

TECLADO, MOUSE Y ACCESORIOS