1 Tubos Fletcher Ovoides derecho e izquierdo, código-color (LCT82-02)
1 Par Mini-Ovoide, D=15mm, L=30mm (2pcs) (LC330-01)
1 Par Ovoide, D=20mm, L=30mm (2pcs) (LC330-02)
1 Par Ovoide, D=25mm, L=30mm (2pcs) (LC330-03)
1 Par Ovoide, D=30mm, L=30mm (2pcs) (LC330-04)
1 Destornillador 1.5mm (LAZ09-01) 
1 Discos para Ginecología. Aplicador, d=3.5mm D=15mm (5pcs) (LCZ03-03)
1 Pinzas de apertura para sujetar discos (LAH05-03)
2 Casquillo Sellado para LCTXX-XX y agujas de acero (10pcs) (LAZ17-03)