1 Pieza bucal para Bougie (LAZ01-01)
1 Aplicador-Fijador para Bougie D=8mm (LAZ01-08)
1 Aplicador-Fijador para Bougie D=10mm (LAZ01-10)
1 Aplicador-Fijador para Bougie D=12mm (LAZ01-12)
1 Aplicador-Fijador para Bougie D=14mm (LAZ01-14)
1 Aplicador-Fijador para Bougie D=16mm (LAZ01-16)
1 Aplicador-Fijador para Bougie D=18mm (LAZ01-18)
1 Tubo Bougie D=8mm (24Fr), L=700mm (LAZ02-08)
1 Tubo Bougie D=10mm (30Fr), L=700mm (LAZ02-10)
1 Tubo Bougie D=12mm (36Fr), L=700mm (LAZ02-12)
1 Tubo Bougie D=14mm (42Fr), L=700mm (LAZ02-14)
1 Tubo Bougie D=16mm (48Fr), L=700mm (LAZ02-16)
1 Tubo Bougie D=18mm (54Fr), L=700mm (LAZ02-18)
1 Cepillo Limpiador para Bougie (LAZ01-02)
1 Adaptador de Limpieza para Bougie (25pcs) (LAZ01-03)
1 Cable guía para Bougie, marcado, D=0.89mm (LAZ01-05)
1 Conector para Aplicador Universal, d=2mm (LLS50)
1 Aplicador Universal, marcado, d=2mm, L=1200mm (estéril) (LLA1200-20)